 1 2  13.3733476
 1 3  5.09366384
 1 4  3.80719834
 1 5  4.74751987
 1 6 -7.15788956
 1 7 -25.2853807
 1 8 -4.67793082
 1 9  0.0445233337
 1 10  7.31778956
 1 11 -0.482022174
 1 12  0.602773307
 1 13  40.0957391
 2 3  0.772933155
 2 4 -1.9147888
 2 5  5.05542109
 2 6  4.37990425
 2 7  102.556319
 2 8  6.73431765
 2 9 -1.05958961
 2 10  0.911742414
 2 11  2.4851897
 2 12 -3.4644585
 2 13 -1.85178052
 3 4  66.4251413
 3 5  24.2082464
 3 6 -4.01071829
 3 7 -3.3083909
 3 8 -0.150944574
 3 9 -3.58535784
 3 10  2.9811153
 3 11  2.15359423
 3 12 -2.07725611
 3 13 -3.16416522
 4 5  14.9096155
 4 6 -4.42606483
 4 7  4.91800017
 4 8 -0.47004041
 4 9 -1.91517297
 4 10  1.47662196
 4 11  0.743789735
 4 12 -0.923652334
 4 13 -1.8973573
 5 6 -2.52358682
 5 7 -1.91367808
 5 8  0.281709971
 5 9 -2.21404564
 5 10  1.97792475
 5 11  2.52889439
 5 12 -1.12584209
 5 13 -2.17843868
 6 7  29.298433
 6 8  48.7678388
 6 9  5.30083514
 6 10 -1.08405813
 6 11 -2.11673146
 6 12  0.718992063
 6 13  5.63346125
 7 8 -1.39263181
 7 9  4.90013343
 7 10 -1.45333508
 7 11 -3.21839333
 7 12  1.27702958
 7 13  6.13385991
 8 9 -30.7246848
 8 10  13.2332943
 8 11  5.19065189
 8 12  0.319617075
 8 13 -10.1154267
 9 10  95.2248517
 9 11 -2.37468148
 9 12  0.285048871
 9 13  84.6121902
 10 11  1.92239441
 10 12  1.08588113
 10 13 -0.980630795
 11 12 -20.5309528
 11 13 -2.73845194
 12 13 -0.327204694
